[gd_scene load_steps=3 format=2]

[ext_resource path="res://sprites/ninepatch72-title.png" type="Texture" id=1]
[ext_resource path="res://resources/theme.tres" type="Theme" id=2]

[node name="DialogBox" type="NinePatchRect"]
anchor_left = 0.5
anchor_top = 0.5
anchor_right = 0.5
anchor_bottom = 0.5
margin_left = -128.0
margin_top = -64.0
margin_right = 124.0
margin_bottom = 62.0
theme = ExtResource( 2 )
texture = ExtResource( 1 )
patch_margin_left = 24
patch_margin_top = 54
patch_margin_right = 18
patch_margin_bottom = 12
axis_stretch_horizontal = 1
axis_stretch_vertical = 1
__meta__ = {
"_edit_use_anchors_": false
}
