[gd_scene load_steps=3 format=2]

[ext_resource path="res://sprites/tbj2_all.tres" type="SpriteFrames" id=1]
[ext_resource path="res://scripts/shadesprite.gd" type="Script" id=2]

[node name="ShadeSprite" type="Spatial"]
script = ExtResource( 2 )

[node name="FaceSprite" type="AnimatedSprite3D" parent="."]
cast_shadow = 0
pixel_size = 0.05
billboard = 2
shaded = true
alpha_cut = 1
frames = ExtResource( 1 )
animation = "stand"
frame = 1
playing = true

[node name="ShadowSprite" type="AnimatedSprite3D" parent="."]
cast_shadow = 3
pixel_size = 0.05
billboard = 2
double_sided = false
alpha_cut = 2
frames = ExtResource( 1 )
animation = "stand"
frame = 1
playing = true
