[gd_resource type="Environment" load_steps=2 format=2]

[sub_resource type="ProceduralSky" id=1]
ground_bottom_color = Color( 0, 0, 0, 1 )
sun_color = Color( 1, 0.980392, 0.721569, 1 )
sun_curve = 0.0683021

[resource]
background_mode = 2
background_sky = SubResource( 1 )
ambient_light_color = Color( 0.988235, 1, 0.631373, 1 )
ambient_light_energy = 0.4
ambient_light_sky_contribution = 0.8
fog_enabled = true
fog_depth_begin = 5.0
fog_depth_curve = 0.757858
fog_transmit_enabled = true
ssao_enabled = true
ssao_intensity = 12.0
dof_blur_far_quality = 2
dof_blur_near_distance = 5.5
dof_blur_near_amount = 0.08
dof_blur_near_quality = 0
glow_enabled = true
glow_strength = 1.05
glow_bloom = 0.05
glow_blend_mode = 0
glow_hdr_threshold = 0.7
glow_hdr_scale = 0.8
adjustment_contrast = 1.2
adjustment_saturation = 1.2
