[gd_resource type="BitmapFont" load_steps=2 format=2]

[ext_resource path="res://fonts/morefonts_24.png" type="Texture" id=1]

[resource]
textures = [ ExtResource( 1 ) ]
chars = PoolIntArray( 112, 0, 0, 168, 21, 21, 0, 0, 21, 32, 0, 0, 96, 21, 21, 0, 0, 21, 48, 0, 0, 120, 21, 21, 0, 0, 21, 64, 0, 0, 144, 21, 21, 0, 0, 21, 80, 0, 0, 168, 21, 21, 0, 0, 21, 113, 0, 24, 168, 21, 21, 0, 0, 21, 33, 0, 24, 96, 21, 21, 0, 0, 21, 49, 0, 24, 120, 21, 21, 0, 0, 21, 65, 0, 24, 144, 21, 21, 0, 0, 21, 81, 0, 24, 168, 21, 21, 0, 0, 21, 97, 0, 24, 144, 21, 21, 0, 0, 21, 114, 0, 48, 168, 21, 21, 0, 0, 21, 98, 0, 48, 144, 21, 21, 0, 0, 21, 34, 0, 48, 96, 21, 21, 0, 0, 21, 50, 0, 48, 120, 21, 21, 0, 0, 21, 66, 0, 48, 144, 21, 21, 0, 0, 21, 82, 0, 48, 168, 21, 21, 0, 0, 21, 115, 0, 72, 168, 21, 21, 0, 0, 21, 99, 0, 72, 144, 21, 21, 0, 0, 21, 35, 0, 72, 96, 21, 21, 0, 0, 21, 51, 0, 72, 120, 21, 21, 0, 0, 21, 67, 0, 72, 144, 21, 21, 0, 0, 21, 83, 0, 72, 168, 21, 21, 0, 0, 21, 116, 0, 96, 168, 21, 21, 0, 0, 21, 100, 0, 96, 144, 21, 21, 0, 0, 21, 36, 0, 96, 96, 21, 21, 0, 0, 21, 52, 0, 96, 120, 21, 21, 0, 0, 21, 68, 0, 96, 144, 21, 21, 0, 0, 21, 84, 0, 96, 168, 21, 21, 0, 0, 21, 117, 0, 120, 168, 21, 21, 0, 0, 21, 101, 0, 120, 144, 21, 21, 0, 0, 21, 37, 0, 120, 96, 21, 21, 0, 0, 21, 53, 0, 120, 120, 21, 21, 0, 0, 21, 69, 0, 120, 144, 21, 21, 0, 0, 21, 85, 0, 120, 168, 21, 21, 0, 0, 21, 118, 0, 144, 168, 21, 21, 0, 0, 21, 102, 0, 144, 144, 21, 21, 0, 0, 21, 38, 0, 144, 96, 21, 21, 0, 0, 21, 54, 0, 144, 120, 21, 21, 0, 0, 21, 70, 0, 144, 144, 21, 21, 0, 0, 21, 86, 0, 144, 168, 21, 21, 0, 0, 21, 119, 0, 168, 168, 21, 21, 0, 0, 21, 103, 0, 168, 144, 21, 21, 0, 0, 21, 39, 0, 168, 96, 21, 21, 0, 0, 21, 55, 0, 168, 120, 21, 21, 0, 0, 21, 71, 0, 168, 144, 21, 21, 0, 0, 21, 87, 0, 168, 168, 21, 21, 0, 0, 21, 120, 0, 192, 168, 21, 21, 0, 0, 21, 104, 0, 192, 144, 21, 21, 0, 0, 21, 40, 0, 192, 96, 21, 21, 0, 0, 21, 56, 0, 192, 120, 21, 21, 0, 0, 21, 72, 0, 192, 144, 21, 21, 0, 0, 21, 88, 0, 192, 168, 21, 21, 0, 0, 21, 121, 0, 216, 168, 21, 21, 0, 0, 21, 105, 0, 216, 144, 21, 21, 0, 0, 21, 41, 0, 216, 96, 21, 21, 0, 0, 21, 57, 0, 216, 120, 21, 21, 0, 0, 21, 73, 0, 216, 144, 21, 21, 0, 0, 21, 89, 0, 216, 168, 21, 21, 0, 0, 21, 122, 0, 240, 168, 21, 21, 0, 0, 21, 106, 0, 240, 144, 21, 21, 0, 0, 21, 42, 0, 240, 96, 21, 21, 0, 0, 21, 58, 0, 240, 120, 21, 21, 0, 0, 21, 74, 0, 240, 144, 21, 21, 0, 0, 21, 90, 0, 240, 168, 21, 21, 0, 0, 21, 107, 0, 264, 144, 21, 21, 0, 0, 21, 43, 0, 264, 96, 21, 21, 0, 0, 21, 59, 0, 264, 120, 21, 21, 0, 0, 21, 75, 0, 264, 144, 21, 21, 0, 0, 21, 91, 0, 264, 168, 21, 21, 0, 0, 21, 108, 0, 288, 144, 21, 21, 0, 0, 21, 44, 0, 288, 96, 21, 21, 0, 0, 21, 60, 0, 288, 120, 21, 21, 0, 0, 21, 76, 0, 288, 144, 21, 21, 0, 0, 21, 92, 0, 288, 168, 21, 21, 0, 0, 21, 109, 0, 312, 144, 21, 21, 0, 0, 21, 45, 0, 312, 96, 21, 21, 0, 0, 21, 61, 0, 312, 120, 21, 21, 0, 0, 21, 77, 0, 312, 144, 21, 21, 0, 0, 21, 93, 0, 312, 168, 21, 21, 0, 0, 21, 110, 0, 336, 144, 21, 21, 0, 0, 21, 46, 0, 336, 96, 21, 21, 0, 0, 21, 62, 0, 336, 120, 21, 21, 0, 0, 21, 78, 0, 336, 144, 21, 21, 0, 0, 21, 94, 0, 336, 168, 21, 21, 0, 0, 21, 111, 0, 360, 144, 21, 21, 0, 0, 21, 47, 0, 360, 96, 21, 21, 0, 0, 21, 63, 0, 360, 120, 21, 21, 0, 0, 21, 79, 0, 360, 144, 21, 21, 0, 0, 21, 95, 0, 360, 168, 21, 21, 0, 0, 21 )
height = 21.0
