[gd_resource type="Shader" format=2]

[resource]
code = "shader_type spatial;
render_mode unshaded;

void fragment() {
	ALBEDO = vec3(3.8, 0.0, 0.0); // * UV.y;
//	ALBEDO = vec3(1.0, 0.0, 0.0); // * UV.y;
	ALPHA = 0.633 * UV.y;
	//ALBEDO = vec3(2.0, 0.0, 0.0) * UV.y;
	//ALBEDO = vec3(SCREEN_UV.y);
	//ALBEDO = vec3(1.0) - (vec3(1.0) *  UV.y);
	//ALBEDO =  vec3(1.0, 0.0, 0.0) * (1.0 / (1.0 - UV.y));
}

"
