[gd_resource type="Shader" format=2]

[resource]
code = "shader_type spatial;
render_mode unshaded;

// https://docs.godotengine.org/en/stable/tutorials/shaders/advanced_postprocessing.html

void vertex() {
	POSITION = vec4(VERTEX, 1.0);
}

void fragment() {
	ALBEDO = textureLod(SCREEN_TEXTURE, SCREEN_UV, 0.0).rgb;
}
"
