[gd_resource type="AtlasTexture" load_steps=2 format=2]

[ext_resource path="res://sprites/option_place_army.png" type="Texture" id=1]

[resource]
flags = 18
atlas = ExtResource( 1 )
region = Rect2( 72, 0, 24, 24 )
