[gd_resource type="SpatialMaterial" load_steps=2 format=2]

[ext_resource path="res://textures/tbj2_010.png" type="Texture" id=1]

[resource]
albedo_texture = ExtResource( 1 )
uv1_scale = Vector3( 8, 8, 8 )
